<?xml version="1.0" encoding="UTF-8" standalone="no"?>
<svg
   xmlns:dc="http://purl.org/dc/elements/1.1/"
   xmlns:cc="http://creativecommons.org/ns#"
   xmlns:rdf="http://www.w3.org/1999/02/22-rdf-syntax-ns#"
   xmlns:svg="http://www.w3.org/2000/svg"
   xmlns="http://www.w3.org/2000/svg"
   xmlns:sodipodi="http://sodipodi.sourceforge.net/DTD/sodipodi-0.dtd"
   xmlns:inkscape="http://www.inkscape.org/namespaces/inkscape"
   version="1.1"
   inkscape:output_extension="org.inkscape.output.svg.inkscape"
   width="300"
   height="126"
   viewBox="0 0 300 126"
   id="svg3895"
   sodipodi:version="0.32"
   inkscape:version="1.0beta1 (c8cd966, 2019-11-15)"
   sodipodi:docname="shapes-f07.svg">
  <defs
     id="defs3" />
  <sodipodi:namedview
     inkscape:lockguides="true"
     id="base"
     pagecolor="#ffffff"
     bordercolor="#666666"
     borderopacity="1.0"
     inkscape:pageopacity="0.0"
     inkscape:pageshadow="2"
     inkscape:zoom="2.8"
     inkscape:cx="169.53814"
     inkscape:cy="112.1325"
     inkscape:document-units="px"
     inkscape:current-layer="layer1"
     inkscape:document-rotation="0"
     showgrid="false"
     units="px"
     showguides="true"
     inkscape:guide-bbox="true"
     inkscape:window-width="1866"
     inkscape:window-height="1016"
     inkscape:window-x="54"
     inkscape:window-y="27"
     inkscape:window-maximized="1" />
  <metadata
     id="metadata4">
    <rdf:RDF>
      <cc:Work
         rdf:about="">
        <dc:format>image/svg+xml</dc:format>
        <dc:type
           rdf:resource="http://purl.org/dc/dcmitype/StillImage" />
        <dc:title></dc:title>
      </cc:Work>
    </rdf:RDF>
  </metadata>
  <g
     inkscape:label="Layer 1"
     inkscape:groupmode="layer"
     id="layer1">
    <rect
       style="color:#000000;fill:#ff6300;fill-opacity:1;fill-rule:evenodd;stroke:#ffffff;stroke-width:0.392593;stroke-linecap:butt;stroke-linejoin:miter;stroke-miterlimit:4;stroke-dashoffset:0;stroke-opacity:1;marker:none;marker-start:none;marker-mid:none;marker-end:none"
       id="rect3610"
       width="18.786024"
       height="14.448191"
       x="250.78557"
       y="190.55925"
       transform="matrix(0.91237021,-0.40936609,0,1,0,0)" />
    <rect
       style="color:#000000;fill:#ff6300;fill-opacity:1;fill-rule:evenodd;stroke:#ffffff;stroke-width:0.392594;stroke-linecap:butt;stroke-linejoin:miter;stroke-miterlimit:4;stroke-dashoffset:0;stroke-opacity:1;marker:none;marker-start:none;marker-mid:none;marker-end:none"
       id="rect3609"
       width="17.585939"
       height="41.475136"
       x="191.47511"
       y="105.20622"
       transform="matrix(0.91237021,-0.40936609,0,1,0,0)" />
    <rect
       style="color:#000000;fill:#ff6300;fill-opacity:1;fill-rule:evenodd;stroke:#ffffff;stroke-width:0.375995;stroke-linecap:butt;stroke-linejoin:miter;stroke-miterlimit:4;stroke-dashoffset:0;stroke-opacity:1;marker:none;marker-start:none;marker-mid:none;marker-end:none"
       id="rect3605"
       width="57.989841"
       height="15.283093"
       x="132.2948"
       y="48.988487"
       transform="matrix(0.99471599,0.102665,0,1,0,0)" />
    <rect
       style="color:#000000;fill:#ff6300;fill-opacity:1;fill-rule:evenodd;stroke:#ffffff;stroke-width:0.375;stroke-linecap:butt;stroke-linejoin:miter;stroke-miterlimit:4;stroke-dashoffset:0;stroke-opacity:1;marker:none;marker-start:none;marker-mid:none;marker-end:none"
       id="rect2965"
       width="32.880157"
       height="18.240938"
       x="54.733414"
       y="19.414135"
       transform="matrix(0.99480172,0.10183097,-0.9135132,0.40680909,0,0)" />
    <rect
       style="color:#000000;fill:#ff6300;fill-opacity:1;fill-rule:evenodd;stroke:#ffffff;stroke-width:0.374999;stroke-linecap:butt;stroke-linejoin:miter;stroke-miterlimit:4;stroke-dashoffset:0;stroke-opacity:1;marker:none;marker-start:none;marker-mid:none;marker-end:none"
       id="rect2966"
       width="18.204769"
       height="30.550602"
       x="61.763859"
       y="53.565739"
       transform="matrix(0.91237021,-0.40936609,0,1,0,0)" />
    <rect
       style="color:#000000;fill:#ff6300;fill-opacity:1;fill-rule:evenodd;stroke:#ffffff;stroke-width:0.375;stroke-linecap:butt;stroke-linejoin:miter;stroke-miterlimit:4;stroke-dashoffset:0;stroke-opacity:1;marker:none;marker-start:none;marker-mid:none;marker-end:none"
       id="rect3596"
       width="32.942345"
       height="30.543308"
       x="16.075476"
       y="23.225918"
       transform="matrix(0.99471599,0.102665,0,1,0,0)" />
    <rect
       style="color:#000000;fill:#ff6300;fill-opacity:1;fill-rule:evenodd;stroke:#ffffff;stroke-width:0.531544;stroke-linecap:butt;stroke-linejoin:miter;stroke-miterlimit:4;stroke-dashoffset:0;stroke-opacity:1;marker:none;marker-start:none;marker-mid:none;marker-end:none"
       id="rect3597"
       width="72.439095"
       height="18.240938"
       x="222.65451"
       y="79.72847"
       transform="matrix(0.99480172,0.10183097,-0.9135132,0.40680909,0,0)" />
    <rect
       style="color:#000000;fill:#ff6300;fill-opacity:1;fill-rule:evenodd;stroke:#ffffff;stroke-width:0.392595;stroke-linecap:butt;stroke-linejoin:miter;stroke-miterlimit:4;stroke-dashoffset:0;stroke-opacity:1;marker:none;marker-start:none;marker-mid:none;marker-end:none"
       id="rect3598"
       width="41.990318"
       height="14.448047"
       x="199.96155"
       y="161.72063"
       transform="matrix(0.91237021,-0.40936609,0,1,0,0)" />
    <rect
       style="color:#000000;fill:#ff6300;fill-opacity:1;fill-rule:evenodd;stroke:#ffffff;stroke-width:0.531544;stroke-linecap:butt;stroke-linejoin:miter;stroke-miterlimit:4;stroke-dashoffset:0;stroke-opacity:1;marker:none;marker-start:none;marker-mid:none;marker-end:none"
       id="rect3599"
       width="25.786482"
       height="18.240904"
       x="322.30396"
       y="109.44135"
       transform="matrix(0.99480172,0.10183097,-0.9135132,0.40680909,0,0)" />
    <rect
       style="color:#000000;fill:#ff6300;fill-opacity:1;fill-rule:evenodd;stroke:#ffffff;stroke-width:0.375995;stroke-linecap:butt;stroke-linejoin:miter;stroke-miterlimit:4;stroke-dashoffset:0;stroke-opacity:1;marker:none;marker-start:none;marker-mid:none;marker-end:none"
       id="rect3600"
       width="25.670109"
       height="30.543308"
       x="205.16411"
       y="63.902061"
       transform="matrix(0.99471599,0.102665,0,1,0,0)" />
    <rect
       style="color:#000000;fill:#ff6300;fill-opacity:1;fill-rule:evenodd;stroke:#ffffff;stroke-width:0.375995;stroke-linecap:butt;stroke-linejoin:miter;stroke-miterlimit:4;stroke-dashoffset:0;stroke-opacity:1;marker:none;marker-start:none;marker-mid:none;marker-end:none"
       id="rect3601"
       width="11.664367"
       height="34.392181"
       x="210.28221"
       y="5.1003022"
       transform="matrix(0.99471599,0.102665,0,1,0,0)" />
    <rect
       style="color:#000000;fill:#ff6300;fill-opacity:1;fill-rule:evenodd;stroke:#ffffff;stroke-width:0.392594;stroke-linecap:butt;stroke-linejoin:miter;stroke-miterlimit:4;stroke-dashoffset:0;stroke-opacity:1;marker:none;marker-start:none;marker-mid:none;marker-end:none"
       id="rect3602"
       width="17.911125"
       height="49.333038"
       x="242.24677"
       y="127.04754"
       transform="matrix(0.91237021,-0.40936609,0,1,0,0)" />
    <rect
       style="color:#000000;fill:#ff6300;fill-opacity:1;fill-rule:evenodd;stroke:#ffffff;stroke-width:0.531544;stroke-linecap:butt;stroke-linejoin:miter;stroke-miterlimit:4;stroke-dashoffset:0;stroke-opacity:1;marker:none;marker-start:none;marker-mid:none;marker-end:none"
       id="rect3603"
       width="25.707092"
       height="23.516693"
       x="269.52319"
       y="98.112259"
       transform="matrix(0.99480172,0.10183097,-0.9135132,0.40680909,0,0)" />
    <rect
       style="color:#000000;fill:#ff6300;fill-opacity:1;fill-rule:evenodd;stroke:#ffffff;stroke-width:0.375995;stroke-linecap:butt;stroke-linejoin:miter;stroke-miterlimit:4;stroke-dashoffset:0;stroke-opacity:1;marker:none;marker-start:none;marker-mid:none;marker-end:none"
       id="rect3604"
       width="25.670109"
       height="45.514793"
       x="157.59155"
       y="60.924034"
       transform="matrix(0.99471599,0.102665,0,1,0,0)" />
    <rect
       style="color:#000000;fill:#ff6300;fill-opacity:1;fill-rule:evenodd;stroke:#ffffff;stroke-width:0.531544;stroke-linecap:butt;stroke-linejoin:miter;stroke-miterlimit:4;stroke-dashoffset:0;stroke-opacity:1;marker:none;marker-start:none;marker-mid:none;marker-end:none"
       id="rect3606"
       width="11.598346"
       height="31.881695"
       x="219.64474"
       y="-21.768084"
       transform="matrix(0.99480172,0.10183097,-0.9135132,0.40680909,0,0)" />
    <rect
       style="color:#000000;fill:#ff6300;fill-opacity:1;fill-rule:evenodd;stroke:#ffffff;stroke-width:0.392595;stroke-linecap:butt;stroke-linejoin:miter;stroke-miterlimit:4;stroke-dashoffset:0;stroke-opacity:1;marker:none;marker-start:none;marker-mid:none;marker-end:none"
       id="rect3607"
       width="23.58704"
       height="45.788456"
       x="199.9615"
       y="161.72063"
       transform="matrix(0.91237021,-0.40936609,0,1,0,0)" />
    <rect
       style="color:#000000;fill:#ff6300;fill-opacity:1;fill-rule:evenodd;stroke:#ffffff;stroke-width:0.375995;stroke-linecap:butt;stroke-linejoin:miter;stroke-miterlimit:4;stroke-dashoffset:0;stroke-opacity:1;marker:none;marker-start:none;marker-mid:none;marker-end:none"
       id="rect3608"
       width="25.670109"
       height="30.543308"
       x="149.71545"
       y="8.9577236"
       transform="matrix(0.99471599,0.102665,0,1,0,0)" />
    <rect
       style="color:#000000;fill:#ff6300;fill-opacity:1;fill-rule:evenodd;stroke:#ffffff;stroke-width:0.392594;stroke-linecap:butt;stroke-linejoin:miter;stroke-miterlimit:4;stroke-dashoffset:0;stroke-opacity:1;marker:none;marker-start:none;marker-mid:none;marker-end:none"
       id="rect3611"
       width="9.7844973"
       height="30.656551"
       x="251.86557"
       y="190.4821"
       transform="matrix(0.91237021,-0.40936609,0,1,0,0)" />
    <rect
       style="color:#000000;fill:#ff6300;fill-opacity:1;fill-rule:evenodd;stroke:#ffffff;stroke-width:0.531544;stroke-linecap:butt;stroke-linejoin:miter;stroke-miterlimit:4;stroke-dashoffset:0;stroke-opacity:1;marker:none;marker-start:none;marker-mid:none;marker-end:none"
       id="rect3612"
       width="25.211805"
       height="18.240866"
       x="166.24577"
       y="-0.72414136"
       transform="matrix(0.99480172,0.10183097,-0.9135132,0.40680909,0,0)" />
    <rect
       style="color:#000000;fill:#ff6300;fill-opacity:1;fill-rule:evenodd;stroke:#ffffff;stroke-width:0.392594;stroke-linecap:butt;stroke-linejoin:miter;stroke-miterlimit:4;stroke-dashoffset:0;stroke-opacity:1;marker:none;marker-start:none;marker-mid:none;marker-end:none"
       id="rect1913"
       width="31.198008"
       height="20.232967"
       x="242.24677"
       y="127.04754"
       transform="matrix(0.91237021,-0.40936609,0,1,0,0)" />
    <text
       xml:space="preserve"
       style="font-style:normal;font-variant:normal;font-weight:normal;font-stretch:normal;font-size:6px;line-height:1.25;font-family:'Liberation Sans',Arial,sans-serif;-inkscape-font-specification:'sans-serif Normal';font-variant-ligatures:normal;font-variant-caps:normal;font-variant-numeric:normal;font-variant-east-asian:normal;text-align:center;text-anchor:middle;fill:#000000;fill-opacity:1;stroke:none;stroke-width:1px;stroke-linecap:butt;stroke-linejoin:miter;stroke-opacity:1"
       x="44.409821"
       y="4.5585938"
       id="text207"><tspan
         sodipodi:role="line"
         id="tspan209"
         x="44.409821"
         y="4.5585938">3 original rectangles</tspan></text>
    <text
       xml:space="preserve"
       style="font-style:normal;font-variant:normal;font-weight:normal;font-stretch:normal;font-size:6px;line-height:1.25;font-family:'Liberation Sans',Arial,sans-serif;-inkscape-font-specification:'sans-serif Normal';font-variant-ligatures:normal;font-variant-caps:normal;font-variant-numeric:normal;font-variant-east-asian:normal;text-align:center;text-anchor:middle;fill:#000000;fill-opacity:1;stroke:none;stroke-width:1px;stroke-linecap:butt;stroke-linejoin:miter;stroke-opacity:1"
       x="196.02606"
       y="4.5585938"
       id="text213"><tspan
         sodipodi:role="line"
         x="196.02606"
         y="4.5585938"
         id="tspan221">Several rectangles copied and resized by handles</tspan><tspan
         id="tspan970"
         sodipodi:role="line"
         x="196.02606"
         y="12.058594">(mostly with Ctrl)</tspan></text>
  </g>
</svg>
