<?xml version="1.0" encoding="UTF-8" standalone="no"?>
<svg
   xmlns:dc="http://purl.org/dc/elements/1.1/"
   xmlns:cc="http://creativecommons.org/ns#"
   xmlns:rdf="http://www.w3.org/1999/02/22-rdf-syntax-ns#"
   xmlns:svg="http://www.w3.org/2000/svg"
   xmlns="http://www.w3.org/2000/svg"
   xmlns:sodipodi="http://sodipodi.sourceforge.net/DTD/sodipodi-0.dtd"
   xmlns:inkscape="http://www.inkscape.org/namespaces/inkscape"
   sodipodi:docname="basic-f14.svg"
   inkscape:version="1.0beta1 (459877fba3, 2019-11-14)"
   sodipodi:version="0.32"
   id="svg2928"
   viewBox="0 0 300 54"
   height="54"
   width="300"
   version="1.1">
  <defs
     id="defs3" />
  <sodipodi:namedview
     inkscape:window-maximized="0"
     inkscape:window-y="27"
     inkscape:window-x="54"
     inkscape:window-height="1053"
     inkscape:window-width="1866"
     inkscape:guide-bbox="true"
     showguides="true"
     units="px"
     showgrid="false"
     inkscape:document-rotation="0"
     inkscape:current-layer="layer1"
     inkscape:document-units="px"
     inkscape:cy="27"
     inkscape:cx="160"
     inkscape:zoom="1.4"
     inkscape:pageshadow="2"
     inkscape:pageopacity="0.0"
     borderopacity="1.0"
     bordercolor="#666666"
     pagecolor="#ffffff"
     id="base"
     inkscape:lockguides="true" />
  <metadata
     id="metadata4">
    <rdf:RDF>
      <cc:Work
         rdf:about="">
        <dc:format>image/svg+xml</dc:format>
        <dc:type
           rdf:resource="http://purl.org/dc/dcmitype/StillImage" />
        <dc:title />
      </cc:Work>
    </rdf:RDF>
  </metadata>
  <g
     id="layer1"
     inkscape:groupmode="layer"
     inkscape:label="Layer 1">
    <path
       style="font-size:12px;fill:#ff9900;fill-opacity:1;fill-rule:evenodd;stroke:#000000;stroke-width:0.615192"
       d="m 144.70421,29.467253 c 0,13.288529 -14.31953,24.060882 -31.98356,24.060882 -17.664041,0 -31.983573,-10.772353 -31.983573,-24.060882 0,-13.28853 14.319532,-24.0610566 31.983573,-24.0610566 17.66403,0 31.98356,10.7725266 31.98356,24.0610566 z"
       id="path1127"
       inkscape:connector-curvature="0" />
    <path
       style="font-size:12px;fill:#ff9900;fill-opacity:1;fill-rule:evenodd;stroke:#000000;stroke-width:0.615192"
       d="m 164.65727,19.9066 c 0,10.222035 -11.42935,18.508555 -25.52816,18.508555 -14.09882,0 -25.52817,-8.28652 -25.52817,-18.508555 0,-10.2219303 11.42935,-18.5084504 25.52817,-18.5084504 14.09881,0 25.52816,8.2865201 25.52816,18.5084504 z"
       id="path1128"
       inkscape:connector-curvature="0" />
    <path
       style="font-size:12px;fill:#ff9900;fill-opacity:1;fill-rule:evenodd;stroke:#000000;stroke-width:0.615192"
       d="m 185.78402,30.379818 c 0,7.836887 -9.72152,14.189889 -21.71362,14.189889 -11.9921,0 -21.71361,-6.353002 -21.71361,-14.189889 0,-7.836782 9.72151,-14.189784 21.71361,-14.189784 11.9921,0 21.71362,6.353002 21.71362,14.189784 z"
       id="path1129"
       inkscape:connector-curvature="0" />
    <path
       style="font-size:12px;fill:#ff9900;fill-opacity:1;fill-rule:evenodd;stroke:#000000;stroke-width:0.615192"
       d="m 198.08584,18.860377 c 0,5.622046 -5.78037,10.179669 -12.9108,10.179669 -7.13044,0 -12.9108,-4.557623 -12.9108,-10.179669 0,-5.622151 5.78036,-10.1796687 12.9108,-10.1796687 7.13043,0 12.9108,4.5575177 12.9108,10.1796687 z"
       id="path1130"
       inkscape:connector-curvature="0" />
    <path
       style="font-size:12px;fill:#ff9900;fill-opacity:1;fill-rule:evenodd;stroke:#000000;stroke-width:0.615192"
       d="m 212.19254,22.630039 c 0,4.429576 -5.25487,8.020335 -11.73708,8.020335 -6.48222,0 -11.73709,-3.590759 -11.73709,-8.020335 0,-4.429472 5.25487,-8.020336 11.73709,-8.020336 6.48221,0 11.73708,3.590864 11.73708,8.020336 z"
       id="path1131"
       inkscape:connector-curvature="0" />
    <path
       style="font-size:12px;fill:#ff9900;fill-opacity:1;fill-rule:evenodd;stroke:#000000;stroke-width:0.615192"
       d="m 219.23475,17.59659 c 0,3.236897 -3.28429,5.861002 -7.33568,5.861002 -4.05138,0 -7.33568,-2.624105 -7.33568,-5.861002 0,-3.237003 3.2843,-5.861002 7.33568,-5.861002 4.05139,0 7.33568,2.623999 7.33568,5.861002 z"
       id="path1132"
       inkscape:connector-curvature="0" />
  </g>
</svg>
