<?xml version="1.0" encoding="UTF-8" standalone="no"?>
<svg
   xmlns:dc="http://purl.org/dc/elements/1.1/"
   xmlns:cc="http://creativecommons.org/ns#"
   xmlns:rdf="http://www.w3.org/1999/02/22-rdf-syntax-ns#"
   xmlns:svg="http://www.w3.org/2000/svg"
   xmlns="http://www.w3.org/2000/svg"
   xmlns:xlink="http://www.w3.org/1999/xlink"
   xmlns:sodipodi="http://sodipodi.sourceforge.net/DTD/sodipodi-0.dtd"
   xmlns:inkscape="http://www.inkscape.org/namespaces/inkscape"
   sodipodi:docname="tips-f06.svg"
   inkscape:version="1.0beta1 (a4ee55bc41, 2019-11-15)"
   sodipodi:version="0.32"
   id="svg4002"
   viewBox="0 0 300 70"
   height="70"
   width="300"
   version="1.1">
  <defs
     id="defs3">
    <linearGradient
       id="linearGradient1077">
      <stop
         style="stop-color:#ff2ee1;stop-opacity:0.529229;"
         offset="0.00000000"
         id="stop1078" />
      <stop
         style="stop-color:#000000;stop-opacity:0;"
         offset="1.00000000"
         id="stop1079" />
    </linearGradient>
    <radialGradient
       xlink:href="#linearGradient1077"
       id="radialGradient1061"
       cx="92.07209"
       cy="494.12567"
       r="40.514122"
       fx="122.4366"
       fy="495.35104"
       gradientTransform="matrix(0.930312,0,0,0.853811,22.35642,1160.277)"
       gradientUnits="userSpaceOnUse" />
    <linearGradient
       id="linearGradient1056">
      <stop
         style="stop-color:#0082ab;stop-opacity:0;"
         offset="0.00000000"
         id="stop1057" />
      <stop
         style="stop-color:#000000;stop-opacity:1;"
         offset="1.00000000"
         id="stop1058" />
    </linearGradient>
    <radialGradient
       xlink:href="#linearGradient1056"
       id="radialGradient1069"
       cx="187.87231"
       cy="494.12567"
       r="40.25808"
       fx="164.25548"
       fy="495.96375"
       gradientTransform="matrix(0.930312,0,0,0.853811,16.07898,1160.277)"
       gradientUnits="userSpaceOnUse" />
    <radialGradient
       r="40.514122"
       fy="495.35104"
       fx="122.4366"
       cy="494.12567"
       cx="92.07209"
       gradientTransform="matrix(0.930312,0,0,0.853811,22.35642,1160.277)"
       gradientUnits="userSpaceOnUse"
       id="radialGradient4026"
       xlink:href="#linearGradient1077"
       inkscape:collect="always" />
    <radialGradient
       r="40.25808"
       fy="495.96375"
       fx="164.25548"
       cy="494.12567"
       cx="187.87231"
       gradientTransform="matrix(0.930312,0,0,0.853811,16.07898,1160.277)"
       gradientUnits="userSpaceOnUse"
       id="radialGradient4028"
       xlink:href="#linearGradient1056"
       inkscape:collect="always" />
    <radialGradient
       r="40.25808"
       fy="495.96375"
       fx="164.25548"
       cy="494.12567"
       cx="187.87231"
       gradientTransform="matrix(0.930312,0,0,0.853811,16.643204,-387.19884)"
       gradientUnits="userSpaceOnUse"
       id="radialGradient4031"
       xlink:href="#linearGradient1056"
       inkscape:collect="always" />
    <radialGradient
       r="40.514122"
       fy="495.35104"
       fx="122.4366"
       cy="494.12567"
       cx="92.07209"
       gradientTransform="matrix(0.930312,0,0,0.853811,22.920644,-387.19884)"
       gradientUnits="userSpaceOnUse"
       id="radialGradient4034"
       xlink:href="#linearGradient1077"
       inkscape:collect="always" />
  </defs>
  <sodipodi:namedview
     inkscape:window-maximized="0"
     inkscape:window-y="27"
     inkscape:window-x="54"
     inkscape:window-height="1053"
     inkscape:window-width="1866"
     inkscape:guide-bbox="true"
     showguides="true"
     units="px"
     showgrid="false"
     inkscape:document-rotation="0"
     inkscape:current-layer="layer1"
     inkscape:document-units="px"
     inkscape:cy="-2.7978518"
     inkscape:cx="324.77314"
     inkscape:zoom="1.4"
     inkscape:pageshadow="2"
     inkscape:pageopacity="0.0"
     borderopacity="1.0"
     bordercolor="#666666"
     pagecolor="#ffffff"
     id="base"
     inkscape:lockguides="true" />
  <metadata
     id="metadata4">
    <rdf:RDF>
      <cc:Work
         rdf:about="">
        <dc:format>image/svg+xml</dc:format>
        <dc:type
           rdf:resource="http://purl.org/dc/dcmitype/StillImage" />
        <dc:title />
      </cc:Work>
    </rdf:RDF>
  </metadata>
  <g
     id="layer1"
     inkscape:groupmode="layer"
     inkscape:label="Layer 1">
    <rect
       style="fill:url(#radialGradient4034);fill-opacity:0.75;fill-rule:evenodd;stroke:#000000;stroke-width:0.894269pt"
       id="rect1569"
       width="74.385429"
       height="68.186623"
       x="71.383873"
       y="0.59617931" />
    <rect
       style="fill:url(#radialGradient4031);fill-opacity:0.75;fill-rule:evenodd;stroke:#000000;stroke-width:0.894269pt"
       id="rect1570"
       width="74.385429"
       height="68.186623"
       x="154.2307"
       y="0.59617931" />
  </g>
</svg>
