<?xml version="1.0" encoding="UTF-8" standalone="no"?>
<svg
   xmlns:dc="http://purl.org/dc/elements/1.1/"
   xmlns:cc="http://creativecommons.org/ns#"
   xmlns:rdf="http://www.w3.org/1999/02/22-rdf-syntax-ns#"
   xmlns:svg="http://www.w3.org/2000/svg"
   xmlns="http://www.w3.org/2000/svg"
   xmlns:sodipodi="http://sodipodi.sourceforge.net/DTD/sodipodi-0.dtd"
   xmlns:inkscape="http://www.inkscape.org/namespaces/inkscape"
   version="1.1"
   sodipodi:docname="advanced-f01.svg"
   inkscape:version="1.0beta1 (a4ee55bc41, 2019-11-15)"
   sodipodi:version="0.32"
   id="svg1794"
   viewBox="0 0 300 113"
   height="113"
   width="300">
  <defs
     id="defs3" />
  <sodipodi:namedview
     viewbox-height="113"
     inkscape:lockguides="true"
     id="base"
     pagecolor="#ffffff"
     bordercolor="#666666"
     borderopacity="1.0"
     inkscape:pageopacity="0.0"
     inkscape:pageshadow="2"
     inkscape:zoom="1.979899"
     inkscape:cx="346.13463"
     inkscape:cy="121.0795"
     inkscape:document-units="px"
     inkscape:current-layer="layer1"
     inkscape:document-rotation="0"
     showgrid="false"
     units="px"
     showguides="true"
     inkscape:guide-bbox="true"
     inkscape:window-width="1866"
     inkscape:window-height="1053"
     inkscape:window-x="54"
     inkscape:window-y="27"
     inkscape:window-maximized="0" />
  <metadata
     id="metadata4">
    <rdf:RDF>
      <cc:Work
         rdf:about="">
        <dc:format>image/svg+xml</dc:format>
        <dc:type
           rdf:resource="http://purl.org/dc/dcmitype/StillImage" />
        <dc:title />
      </cc:Work>
    </rdf:RDF>
  </metadata>
  <g
     id="layer1"
     inkscape:groupmode="layer"
     inkscape:label="Layer 1">
    <path
       inkscape:connector-curvature="0"
       style="color:#000000;font-family:sans-serif;display:inline;overflow:visible;visibility:visible;opacity:1;fill:none;fill-opacity:0.75;fill-rule:evenodd;stroke:#000000;stroke-width:1pt;stroke-linecap:butt;stroke-linejoin:miter;stroke-miterlimit:4;stroke-dasharray:none;stroke-dashoffset:0;stroke-opacity:1;marker:none;marker-start:none;marker-mid:none;marker-end:none"
       d="m 49.466528,13.757459 c 0.0963,0.120378 -6.045799,-10.69424 2.295698,-8.608866 13.014163,3.253541 36.67583,11.755119 39.60078,-2.869621 0.66483,-3.324158 -1.89552,6.509695 -2.86962,9.756714 C 77.471423,48.77557 78.117082,102.14182 27.6574,102.14182 c -3.943918,0 1.623291,-8.30748 4.591395,-10.90457"
       id="path1346" />
    <path
       inkscape:connector-curvature="0"
       style="color:#000000;font-family:sans-serif;display:inline;overflow:visible;visibility:visible;opacity:1;fill:none;fill-opacity:0.75;fill-rule:evenodd;stroke:#000000;stroke-width:1pt;stroke-linecap:butt;stroke-linejoin:miter;stroke-miterlimit:4;stroke-dasharray:none;stroke-dashoffset:0;stroke-opacity:1;marker:none;marker-start:none;marker-mid:none;marker-end:none"
       d="m 83.838052,57.80927 c 2.65049,0.33132 -2.12872,-10.64358 0,0 0.78564,3.92821 -17.812361,41.36396 -8.608867,22.95698 15.012647,-30.02529 26.377435,-37.16659 20.087357,0.57392 -1.26158,7.56944 5.875878,5.70021 9.756718,4.5914"
       id="path1350" />
    <path
       inkscape:connector-curvature="0"
       style="color:#000000;font-family:sans-serif;display:inline;overflow:visible;visibility:visible;opacity:1;fill:none;fill-opacity:0.75;fill-rule:evenodd;stroke:#000000;stroke-width:1pt;stroke-linecap:butt;stroke-linejoin:miter;stroke-miterlimit:4;stroke-dasharray:none;stroke-dashoffset:0;stroke-opacity:1;marker:none;marker-start:none;marker-mid:none;marker-end:none"
       d="m 149.32938,49.9147 c 0.85555,1.28333 -3.06093,-0.38262 -4.5914,-0.57393 -6.77292,-0.84661 -15.44563,12.45181 -4.59139,16.06988 18.4697,6.15657 -6.94741,13.09755 -13.20027,14.34812"
       id="path1354" />
    <path
       inkscape:connector-curvature="0"
       style="color:#000000;font-family:sans-serif;display:inline;overflow:visible;visibility:visible;opacity:1;fill:none;fill-opacity:0.75;fill-rule:evenodd;stroke:#000000;stroke-width:1pt;stroke-linecap:butt;stroke-linejoin:miter;stroke-miterlimit:4;stroke-dasharray:none;stroke-dashoffset:0;stroke-opacity:1;marker:none;marker-start:none;marker-mid:none;marker-end:none"
       d="m 187.78231,45.3233 c 0.67931,-0.42456 -5.31533,1.44788 -9.18279,9.18279 -11.9018,23.80362 20.08736,8.78955 20.08736,-5.16532 0,-11.548692 -31.71571,4.41667 -21.2352,8.60887"
       id="path1358" />
    <path
       inkscape:connector-curvature="0"
       style="color:#000000;font-family:sans-serif;display:inline;overflow:visible;visibility:visible;opacity:1;fill:none;fill-opacity:0.75;fill-rule:evenodd;stroke:#000000;stroke-width:1pt;stroke-linecap:butt;stroke-linejoin:miter;stroke-miterlimit:4;stroke-dasharray:none;stroke-dashoffset:0;stroke-opacity:1;marker:none;marker-start:none;marker-mid:none;marker-end:none"
       d="m 198.11296,47.619 c 0,-1.03083 -3.28692,11.21783 1.72176,21.2352"
       id="path1360" />
    <path
       inkscape:connector-curvature="0"
       style="color:#000000;font-family:sans-serif;display:inline;overflow:visible;visibility:visible;opacity:1;fill:none;fill-opacity:0.75;fill-rule:evenodd;stroke:#000000;stroke-width:1pt;stroke-linecap:butt;stroke-linejoin:miter;stroke-miterlimit:4;stroke-dasharray:none;stroke-dashoffset:0;stroke-opacity:1;marker:none;marker-start:none;marker-mid:none;marker-end:none"
       d="m 212.46106,38.436209 c 4.80809,24.040461 -7.01473,48.592571 -14.3481,70.592711 -4.08439,12.25316 -0.0582,-14.79769 0.57392,-22.38306 3.21116,-38.53391 52.43188,-71.09452 27.54837,-27.54837 -2.51358,4.39877 -8.07546,5.73924 -12.62633,5.73924"
       id="path1372" />
    <path
       inkscape:connector-curvature="0"
       style="color:#000000;font-family:sans-serif;display:inline;overflow:visible;visibility:visible;opacity:1;fill:none;fill-opacity:0.75;fill-rule:evenodd;stroke:#000000;stroke-width:1pt;stroke-linecap:butt;stroke-linejoin:miter;stroke-miterlimit:4;stroke-dasharray:none;stroke-dashoffset:0;stroke-opacity:1;marker:none;marker-start:none;marker-mid:none;marker-end:none"
       d="m 128.21622,10.790752 c 0.45322,0.679827 -16.44564,58.367578 -18.21429,65.000008 -6.22847,23.35678 -13.256237,15.48008 2.85715,-12.14286 7.99422,-13.70438 20.37724,-26.488876 12.49999,-2.85714 -3.64087,10.92262 -12.32378,-1.97136 -8.57142,9.28571 2.13183,6.3955 3.58147,10.66183 10.71428,9.64286"
       id="path2338"
       sodipodi:nodetypes="cccccc" />
    <path
       inkscape:connector-curvature="0"
       style="color:#000000;font-family:sans-serif;display:inline;overflow:visible;visibility:visible;opacity:1;fill:none;fill-opacity:0.75;fill-rule:evenodd;stroke:#000000;stroke-width:1pt;stroke-linecap:butt;stroke-linejoin:miter;stroke-miterlimit:4;stroke-dasharray:none;stroke-dashoffset:0;stroke-opacity:1;marker:none;marker-start:none;marker-mid:none;marker-end:none"
       d="m 171.78765,48.29075 c -0.9245,1.38675 -3.45254,-0.61898 -5,0 -15.46954,6.18782 -25.18676,28.82307 -0.71428,23.92857 2.56021,-0.51204 4.7619,-2.14285 7.14285,-3.21428"
       id="path2356" />
    <path
       inkscape:connector-curvature="0"
       style="color:#000000;font-family:sans-serif;display:inline;overflow:visible;visibility:visible;opacity:1;fill:none;fill-opacity:0.75;fill-rule:evenodd;stroke:#000000;stroke-width:1pt;stroke-linecap:butt;stroke-linejoin:miter;stroke-miterlimit:4;stroke-dasharray:none;stroke-dashoffset:0;stroke-opacity:1;marker:none;marker-start:none;marker-mid:none;marker-end:none"
       d="m 233.57337,51.86218 c -0.0235,0.04222 8.21187,-2.60101 14.64285,-5.35714 13.01541,-5.578035 12.87477,-20.010073 -2.14285,-11.428573 -10.41037,5.948779 -18.70292,23.928573 -1.07143,23.928573 9.3689,0 21.65407,-3.89093 28.92857,-10.35714"
       id="path2382" />
  </g>
</svg>
